Analyzing and QC Counts_QC_before_DE
…
The max in each sample is much higher than median/mean counts/sample, indicating genes with extreme counts (probably outliers). Lets look at the genes that are on the top end for each sample

top_genes_table <- data %>%
  rownames_to_column(var = "Gene") %>%
  pivot_longer(cols = -Gene, names_to = "Sample", values_to = "Counts") %>%
  group_by(Sample) %>%
  slice_max(order_by = Counts, n = 5) %>%
  arrange(Sample, desc(Counts))

print(top_genes_table)

# A tibble: 80 × 3
# Groups:   Sample [16]
   Gene    Sample                Counts
   <chr>   <chr>                  <int>
 1 MT-ND4  LNCaP_EV_Hypoxia_rep1 813195
 2 MT-CO1  LNCaP_EV_Hypoxia_rep1 738599
 3 MT-ATP6 LNCaP_EV_Hypoxia_rep1 341116
 4 MT-CO2  LNCaP_EV_Hypoxia_rep1 328782
 5 MT-RNR2 LNCaP_EV_Hypoxia_rep1 285070
 6 MT-ND4  LNCaP_EV_Hypoxia_rep2 818218
 7 MT-CO1  LNCaP_EV_Hypoxia_rep2 788989
 8 MT-ATP6 LNCaP_EV_Hypoxia_rep2 376676
 9 MT-CO2  LNCaP_EV_Hypoxia_rep2 359900
10 MT-RNR2 LNCaP_EV_Hypoxia_rep2 331285
# ℹ 70 more rows
…
